\relax 
\providecommand\hyper@newdestlabel[2]{}
\providecommand\HyperFirstAtBeginDocument{\AtBeginDocument}
\HyperFirstAtBeginDocument{\ifx\hyper@anchor\@undefined
\global\let\oldcontentsline\contentsline
\gdef\contentsline#1#2#3#4{\oldcontentsline{#1}{#2}{#3}}
\global\let\oldnewlabel\newlabel
\gdef\newlabel#1#2{\newlabelxx{#1}#2}
\gdef\newlabelxx#1#2#3#4#5#6{\oldnewlabel{#1}{{#2}{#3}}}
\AtEndDocument{\ifx\hyper@anchor\@undefined
\let\contentsline\oldcontentsline
\let\newlabel\oldnewlabel
\fi}
\fi}
\global\let\hyper@last\relax 
\gdef\HyperFirstAtBeginDocument#1{#1}
\providecommand\HyField@AuxAddToFields[1]{}
\providecommand\HyField@AuxAddToCoFields[2]{}
\babel@aux{english}{}
\newlabel{index::doc}{{}{1}{}{section*.2}{}}
\@writefile{toc}{\contentsline {chapter}{\numberline {1}Pyidp3 features}{3}{chapter.1}\protected@file@percent }
\@writefile{lof}{\addvspace {10\p@ }}
\@writefile{lot}{\addvspace {10\p@ }}
\newlabel{features:pyidp3-features}{{1}{3}{Pyidp3 features}{chapter.1}{}}
\newlabel{features:features}{{1}{3}{Pyidp3 features}{chapter.1}{}}
\newlabel{features::doc}{{1}{3}{Pyidp3 features}{chapter.1}{}}
\@writefile{toc}{\contentsline {section}{\numberline {1.1}Existing features from Pyidp}{3}{section.1.1}\protected@file@percent }
\newlabel{features:existing-features-from-pyidp}{{1.1}{3}{Existing features from Pyidp}{section.1.1}{}}
\@writefile{toc}{\contentsline {section}{\numberline {1.2}Added features in Pyidp3}{3}{section.1.2}\protected@file@percent }
\newlabel{features:added-features-in-pyidp3}{{1.2}{3}{Added features in Pyidp3}{section.1.2}{}}
\@writefile{toc}{\contentsline {section}{\numberline {1.3}Added QOL in Pyidp3:}{4}{section.1.3}\protected@file@percent }
\newlabel{features:added-qol-in-pyidp3}{{1.3}{4}{Added QOL in Pyidp3:}{section.1.3}{}}
\@writefile{toc}{\contentsline {section}{\numberline {1.4}Fixed bugs:}{4}{section.1.4}\protected@file@percent }
\newlabel{features:fixed-bugs}{{1.4}{4}{Fixed bugs:}{section.1.4}{}}
\@writefile{toc}{\contentsline {chapter}{\numberline {2}Basic Tutorial}{7}{chapter.2}\protected@file@percent }
\@writefile{lof}{\addvspace {10\p@ }}
\@writefile{lot}{\addvspace {10\p@ }}
\newlabel{tutorial:basic-tutorial}{{2}{7}{Basic Tutorial}{chapter.2}{}}
\newlabel{tutorial:tutorial}{{2}{7}{Basic Tutorial}{chapter.2}{}}
\newlabel{tutorial::doc}{{2}{7}{Basic Tutorial}{chapter.2}{}}
\@writefile{toc}{\contentsline {section}{\numberline {2.1}Requirements}{7}{section.2.1}\protected@file@percent }
\newlabel{tutorial:requirements}{{2.1}{7}{Requirements}{section.2.1}{}}
\@writefile{toc}{\contentsline {section}{\numberline {2.2}Tutorial}{7}{section.2.2}\protected@file@percent }
\newlabel{tutorial:id1}{{2.2}{7}{Tutorial}{section.2.2}{}}
\@writefile{toc}{\contentsline {chapter}{\numberline {3}Examples using the Pyidp3 API}{13}{chapter.3}\protected@file@percent }
\@writefile{lof}{\addvspace {10\p@ }}
\@writefile{lot}{\addvspace {10\p@ }}
\newlabel{examples:examples-using-the-pyidp3-api}{{3}{13}{Examples using the Pyidp3 API}{chapter.3}{}}
\newlabel{examples:examples}{{3}{13}{Examples using the Pyidp3 API}{chapter.3}{}}
\newlabel{examples::doc}{{3}{13}{Examples using the Pyidp3 API}{chapter.3}{}}
\@writefile{toc}{\contentsline {section}{\numberline {3.1}simple\_inference}{13}{section.3.1}\protected@file@percent }
\newlabel{examples:simple-inference}{{3.1}{13}{simple\_inference}{section.3.1}{}}
\@writefile{toc}{\contentsline {section}{\numberline {3.2}harder\_inference}{14}{section.3.2}\protected@file@percent }
\newlabel{examples:harder-inference}{{3.2}{14}{harder\_inference}{section.3.2}{}}
\@writefile{toc}{\contentsline {section}{\numberline {3.3}definition\_test}{15}{section.3.3}\protected@file@percent }
\newlabel{examples:definition-test}{{3.3}{15}{definition\_test}{section.3.3}{}}
\@writefile{toc}{\contentsline {section}{\numberline {3.4}constructed\_from}{16}{section.3.4}\protected@file@percent }
\newlabel{examples:constructed-from}{{3.4}{16}{constructed\_from}{section.3.4}{}}
\@writefile{toc}{\contentsline {section}{\numberline {3.5}initial\_group\_assign}{16}{section.3.5}\protected@file@percent }
\newlabel{examples:initial-group-assign}{{3.5}{16}{initial\_group\_assign}{section.3.5}{}}
\@writefile{toc}{\contentsline {section}{\numberline {3.6}initial\_group\_assign\_plus}{18}{section.3.6}\protected@file@percent }
\newlabel{examples:initial-group-assign-plus}{{3.6}{18}{initial\_group\_assign\_plus}{section.3.6}{}}
\@writefile{toc}{\contentsline {section}{\numberline {3.7}further\_group\_assign}{20}{section.3.7}\protected@file@percent }
\newlabel{examples:further-group-assign}{{3.7}{20}{further\_group\_assign}{section.3.7}{}}
\@writefile{toc}{\contentsline {section}{\numberline {3.8}sudoku}{23}{section.3.8}\protected@file@percent }
\newlabel{examples:sudoku}{{3.8}{23}{sudoku}{section.3.8}{}}
\@writefile{toc}{\contentsline {section}{\numberline {3.9}masyu}{24}{section.3.9}\protected@file@percent }
\newlabel{examples:masyu}{{3.9}{24}{masyu}{section.3.9}{}}
\@writefile{toc}{\contentsline {chapter}{\numberline {4}Porting of Pyidp to Pyidp3}{27}{chapter.4}\protected@file@percent }
\@writefile{lof}{\addvspace {10\p@ }}
\@writefile{lot}{\addvspace {10\p@ }}
\newlabel{porting:porting-of-pyidp-to-pyidp3}{{4}{27}{Porting of Pyidp to Pyidp3}{chapter.4}{}}
\newlabel{porting:porting}{{4}{27}{Porting of Pyidp to Pyidp3}{chapter.4}{}}
\newlabel{porting::doc}{{4}{27}{Porting of Pyidp to Pyidp3}{chapter.4}{}}
\@writefile{toc}{\contentsline {chapter}{\numberline {5}The Pyidp3 API reference}{33}{chapter.5}\protected@file@percent }
\@writefile{lof}{\addvspace {10\p@ }}
\@writefile{lot}{\addvspace {10\p@ }}
\newlabel{api:the-pyidp3-api-reference}{{5}{33}{The Pyidp3 API reference}{chapter.5}{}}
\newlabel{api:api}{{5}{33}{The Pyidp3 API reference}{chapter.5}{}}
\newlabel{api::doc}{{5}{33}{The Pyidp3 API reference}{chapter.5}{}}
\newlabel{api:module-pyidp3}{{5}{33}{The Pyidp3 API reference}{section*.3}{}}
\@writefile{toc}{\contentsline {section}{\numberline {5.1}The typedIDP submodule:}{33}{section.5.1}\protected@file@percent }
\newlabel{api:the-typedidp-submodule}{{5.1}{33}{The typedIDP submodule:}{section.5.1}{}}
\newlabel{api:module-pyidp3.typedIDP}{{5.1}{33}{The typedIDP submodule:}{section*.4}{}}
\newlabel{api:pyidp3.typedIDP.Block}{{5.1}{33}{The typedIDP submodule:}{section*.5}{}}
\newlabel{api:pyidp3.typedIDP.Block.begin}{{5.1}{33}{The typedIDP submodule:}{section*.6}{}}
\newlabel{api:pyidp3.typedIDP.Block.content}{{5.1}{33}{The typedIDP submodule:}{section*.7}{}}
\newlabel{api:pyidp3.typedIDP.Block.end}{{5.1}{34}{The typedIDP submodule:}{section*.8}{}}
\newlabel{api:pyidp3.typedIDP.Block.header}{{5.1}{34}{The typedIDP submodule:}{section*.9}{}}
\newlabel{api:pyidp3.typedIDP.Block.method}{{5.1}{34}{The typedIDP submodule:}{section*.10}{}}
\newlabel{api:pyidp3.typedIDP.Block.show}{{5.1}{34}{The typedIDP submodule:}{section*.11}{}}
\newlabel{api:pyidp3.typedIDP.IDP}{{5.1}{34}{The typedIDP submodule:}{section*.12}{}}
\newlabel{api:pyidp3.typedIDP.IDP.Constant}{{5.1}{34}{The typedIDP submodule:}{section*.13}{}}
\newlabel{api:pyidp3.typedIDP.IDP.Constraint}{{5.1}{34}{The typedIDP submodule:}{section*.14}{}}
\newlabel{api:pyidp3.typedIDP.IDP.Define}{{5.1}{35}{The typedIDP submodule:}{section*.15}{}}
\newlabel{api:pyidp3.typedIDP.IDP.Function}{{5.1}{35}{The typedIDP submodule:}{section*.16}{}}
\newlabel{api:pyidp3.typedIDP.IDP.GeneratedFunction}{{5.1}{36}{The typedIDP submodule:}{section*.17}{}}
\newlabel{api:pyidp3.typedIDP.IDP.GeneratedPartialFunction}{{5.1}{36}{The typedIDP submodule:}{section*.18}{}}
\newlabel{api:pyidp3.typedIDP.IDP.Predicate}{{5.1}{36}{The typedIDP submodule:}{section*.19}{}}
\newlabel{api:pyidp3.typedIDP.IDP.Type}{{5.1}{36}{The typedIDP submodule:}{section*.20}{}}
\newlabel{api:pyidp3.typedIDP.IDP.append}{{5.1}{36}{The typedIDP submodule:}{section*.21}{}}
\newlabel{api:pyidp3.typedIDP.IDP.check_sat}{{5.1}{36}{The typedIDP submodule:}{section*.22}{}}
\newlabel{api:pyidp3.typedIDP.IDP.check_sat_script}{{5.1}{37}{The typedIDP submodule:}{section*.23}{}}
\newlabel{api:pyidp3.typedIDP.IDP.customScript}{{5.1}{37}{The typedIDP submodule:}{section*.24}{}}
\newlabel{api:pyidp3.typedIDP.IDP.forget}{{5.1}{37}{The typedIDP submodule:}{section*.25}{}}
\newlabel{api:pyidp3.typedIDP.IDP.generateScript}{{5.1}{37}{The typedIDP submodule:}{section*.26}{}}
\newlabel{api:pyidp3.typedIDP.IDP.init_options}{{5.1}{37}{The typedIDP submodule:}{section*.27}{}}
\newlabel{api:pyidp3.typedIDP.IDP.know}{{5.1}{37}{The typedIDP submodule:}{section*.28}{}}
\newlabel{api:pyidp3.typedIDP.IDP.minimize}{{5.1}{37}{The typedIDP submodule:}{section*.29}{}}
\newlabel{api:pyidp3.typedIDP.IDP.minimizeScript}{{5.1}{37}{The typedIDP submodule:}{section*.30}{}}
\newlabel{api:pyidp3.typedIDP.IDP.refresh}{{5.1}{38}{The typedIDP submodule:}{section*.31}{}}
\newlabel{api:pyidp3.typedIDP.IDP.split_func_name}{{5.1}{38}{The typedIDP submodule:}{section*.32}{}}
\newlabel{api:pyidp3.typedIDP.IDP.split_pred_name}{{5.1}{38}{The typedIDP submodule:}{section*.33}{}}
\newlabel{api:pyidp3.typedIDP.Structure}{{5.1}{38}{The typedIDP submodule:}{section*.34}{}}
\newlabel{api:pyidp3.typedIDP.Structure.header}{{5.1}{38}{The typedIDP submodule:}{section*.35}{}}
\newlabel{api:pyidp3.typedIDP.Term}{{5.1}{38}{The typedIDP submodule:}{section*.36}{}}
\newlabel{api:pyidp3.typedIDP.Term.content}{{5.1}{38}{The typedIDP submodule:}{section*.37}{}}
\newlabel{api:pyidp3.typedIDP.Term.header}{{5.1}{38}{The typedIDP submodule:}{section*.38}{}}
\newlabel{api:pyidp3.typedIDP.Theory}{{5.1}{38}{The typedIDP submodule:}{section*.39}{}}
\newlabel{api:pyidp3.typedIDP.Theory.header}{{5.1}{39}{The typedIDP submodule:}{section*.40}{}}
\newlabel{api:pyidp3.typedIDP.Vocabulary}{{5.1}{39}{The typedIDP submodule:}{section*.41}{}}
\newlabel{api:pyidp3.typedIDP.Vocabulary.header}{{5.1}{39}{The typedIDP submodule:}{section*.42}{}}
\newlabel{api:pyidp3.typedIDP.subclasses}{{5.1}{39}{The typedIDP submodule:}{section*.43}{}}
\@writefile{toc}{\contentsline {section}{\numberline {5.2}The idpobjects submodule:}{39}{section.5.2}\protected@file@percent }
\newlabel{api:the-idpobjects-submodule}{{5.2}{39}{The idpobjects submodule:}{section.5.2}{}}
\newlabel{api:module-pyidp3.idpobjects}{{5.2}{39}{The idpobjects submodule:}{section*.44}{}}
\newlabel{api:pyidp3.idpobjects.IDPConstraint}{{5.2}{39}{The idpobjects submodule:}{section*.45}{}}
\newlabel{api:pyidp3.idpobjects.IDPConstructedType}{{5.2}{39}{The idpobjects submodule:}{section*.46}{}}
\newlabel{api:pyidp3.idpobjects.IDPDefinition}{{5.2}{39}{The idpobjects submodule:}{section*.47}{}}
\newlabel{api:pyidp3.idpobjects.IDPEmptyConstantFunction}{{5.2}{39}{The idpobjects submodule:}{section*.48}{}}
\newlabel{api:pyidp3.idpobjects.IDPEnumeratedFunction}{{5.2}{39}{The idpobjects submodule:}{section*.49}{}}
\newlabel{api:pyidp3.idpobjects.IDPEnumeratedObject}{{5.2}{39}{The idpobjects submodule:}{section*.50}{}}
\newlabel{api:pyidp3.idpobjects.IDPEnumeratedPredicate}{{5.2}{39}{The idpobjects submodule:}{section*.51}{}}
\newlabel{api:pyidp3.idpobjects.IDPEnumeratedPredicate.add}{{5.2}{39}{The idpobjects submodule:}{section*.52}{}}
\newlabel{api:pyidp3.idpobjects.IDPEnumeratedPredicate.discard}{{5.2}{39}{The idpobjects submodule:}{section*.53}{}}
\newlabel{api:pyidp3.idpobjects.IDPFunction}{{5.2}{39}{The idpobjects submodule:}{section*.54}{}}
\newlabel{api:pyidp3.idpobjects.IDPGeneratedFunction}{{5.2}{39}{The idpobjects submodule:}{section*.55}{}}
\newlabel{api:pyidp3.idpobjects.IDPGeneratedObject}{{5.2}{39}{The idpobjects submodule:}{section*.56}{}}
\newlabel{api:pyidp3.idpobjects.IDPGeneratedPredicate}{{5.2}{39}{The idpobjects submodule:}{section*.57}{}}
\newlabel{api:pyidp3.idpobjects.IDPIntRangeType}{{5.2}{39}{The idpobjects submodule:}{section*.58}{}}
\newlabel{api:pyidp3.idpobjects.IDPIntType}{{5.2}{40}{The idpobjects submodule:}{section*.59}{}}
\newlabel{api:pyidp3.idpobjects.IDPObject}{{5.2}{40}{The idpobjects submodule:}{section*.60}{}}
\newlabel{api:pyidp3.idpobjects.IDPPredicate}{{5.2}{40}{The idpobjects submodule:}{section*.61}{}}
\newlabel{api:pyidp3.idpobjects.IDPRule}{{5.2}{40}{The idpobjects submodule:}{section*.62}{}}
\newlabel{api:pyidp3.idpobjects.IDPRuleStr}{{5.2}{40}{The idpobjects submodule:}{section*.63}{}}
\newlabel{api:pyidp3.idpobjects.IDPSpecialType}{{5.2}{40}{The idpobjects submodule:}{section*.64}{}}
\newlabel{api:pyidp3.idpobjects.IDPTheoryObject}{{5.2}{40}{The idpobjects submodule:}{section*.65}{}}
\newlabel{api:pyidp3.idpobjects.IDPType}{{5.2}{40}{The idpobjects submodule:}{section*.66}{}}
\newlabel{api:pyidp3.idpobjects.IDPUnknownFunction}{{5.2}{40}{The idpobjects submodule:}{section*.67}{}}
\newlabel{api:pyidp3.idpobjects.IDPUnknownObject}{{5.2}{40}{The idpobjects submodule:}{section*.68}{}}
\newlabel{api:pyidp3.idpobjects.IDPUnknownPredicate}{{5.2}{40}{The idpobjects submodule:}{section*.69}{}}
\newlabel{api:pyidp3.idpobjects.IDPValueConstantFunction}{{5.2}{40}{The idpobjects submodule:}{section*.70}{}}
\newlabel{api:pyidp3.idpobjects.IDPVocabularyObject}{{5.2}{40}{The idpobjects submodule:}{section*.71}{}}
\newlabel{api:pyidp3.idpobjects.IDPVocabularyObject.in_theory}{{5.2}{40}{The idpobjects submodule:}{section*.72}{}}
\@writefile{toc}{\contentsline {section}{\numberline {5.3}The idp\_py\_syntax submodule:}{40}{section.5.3}\protected@file@percent }
\newlabel{api:the-idp-py-syntax-submodule}{{5.3}{40}{The idp\_py\_syntax submodule:}{section.5.3}{}}
\newlabel{api:module-pyidp3.idp_py_syntax}{{5.3}{40}{The idp\_py\_syntax submodule:}{section*.73}{}}
\newlabel{api:pyidp3.idp_py_syntax.FormulaBuilder}{{5.3}{40}{The idp\_py\_syntax submodule:}{section*.74}{}}
\newlabel{api:pyidp3.idp_py_syntax.FormulaBuilder.generic_visit}{{5.3}{40}{The idp\_py\_syntax submodule:}{section*.75}{}}
\@writefile{toc}{\contentsline {section}{\numberline {5.4}The idp\_parse\_out submodule:}{40}{section.5.4}\protected@file@percent }
\newlabel{api:the-idp-parse-out-submodule}{{5.4}{40}{The idp\_parse\_out submodule:}{section.5.4}{}}
\newlabel{api:module-pyidp3.idp_parse_out}{{5.4}{40}{The idp\_parse\_out submodule:}{section*.76}{}}
\@writefile{toc}{\contentsline {chapter}{Python Module Index}{41}{section*.77}\protected@file@percent }
\@writefile{toc}{\contentsline {chapter}{Index}{43}{section*.78}\protected@file@percent }
